{
  "project_info": {
    "project_number": "936612464572",
    "firebase_url": "https://mymech-b8c30.firebaseio.com",
    "project_id": "mymech-b8c30",
    "storage_bucket": "mymech-b8c30.appspot.com"
  },
  "client": [
    {
      "client_info": {
        "mobilesdk_app_id": "1:936612464572:android:7d95575daa70919d",
        "android_client_info": {
          "package_name": "com.example.mech"
        }
      },
      "oauth_client": [
        {
          "client_id": "936612464572-4q6bs9hhq15b6nvcpop1b13gfb18kfr6.apps.googleusercontent.com",
          "client_type": 1,
          "android_info": {
            "package_name": "com.example.mech",
            "certificate_hash": "4807194c18bda9cc01e3b5839ff991e018c69cec"
          }
        },
        {
          "client_id": "936612464572-e1esp0oculo1kalg1ot9cc51dej38don.apps.googleusercontent.com",
          "client_type": 3
        }
      ],
      "api_key": [
        {
          "current_key": "AIzaSyBadUzUXtgO1ZVh0dBnSHwWK6KdvNbAJmM"
        }
      ],
      "services": {
        "analytics_service": {
          "status": 1
        },
        "appinvite_service": {
          "status": 2,
          "other_platform_oauth_client": [
            {
              "client_id": "936612464572-e1esp0oculo1kalg1ot9cc51dej38don.apps.googleusercontent.com",
              "client_type": 3
            }
          ]
        },
        "ads_service": {
          "status": 2
        }
      }
    },
    {
      "client_info": {
        "mobilesdk_app_id": "1:936612464572:android:9762b9797c837788",
        "android_client_info": {
          "package_name": "com.mazzsolutions.mymechanic"
        }
      },
      "oauth_client": [
        {
          "client_id": "936612464572-d1hlvm3d03m8q5bb6n9a0r27v1995fo2.apps.googleusercontent.com",
          "client_type": 1,
          "android_info": {
            "package_name": "com.mazzsolutions.mymechanic",
            "certificate_hash": "2dd563f4d4b1c4f20aa499cba3bd79c3e4f4f682"
          }
        },
        {
          "client_id": "936612464572-j49ql1e4e0knslp0c2q918osie29f739.apps.googleusercontent.com",
          "client_type": 1,
          "android_info": {
            "package_name": "com.mazzsolutions.mymechanic",
            "certificate_hash": "4807194c18bda9cc01e3b5839ff991e018c69cec"
          }
        },
        {
          "client_id": "936612464572-e1esp0oculo1kalg1ot9cc51dej38don.apps.googleusercontent.com",
          "client_type": 3
        }
      ],
      "api_key": [
        {
          "current_key": "AIzaSyBadUzUXtgO1ZVh0dBnSHwWK6KdvNbAJmM"
        }
      ],
      "services": {
        "analytics_service": {
          "status": 1
        },
        "appinvite_service": {
          "status": 2,
          "other_platform_oauth_client": [
            {
              "client_id": "936612464572-e1esp0oculo1kalg1ot9cc51dej38don.apps.googleusercontent.com",
              "client_type": 3
            }
          ]
        },
        "ads_service": {
          "status": 2
        }
      }
    }
  ],
  "configuration_version": "1"
}